module myAPI

go 1.16

require (
	github.com/alecthomas/template v0.0.0-20190718012654-fb15b899a751
	github.com/gin-gonic/gin v1.7.3
	github.com/gofrs/uuid v4.0.0+incompatible
	github.com/swaggo/files v0.0.0-20190704085106-630677cd5c14
	github.com/swaggo/gin-swagger v1.3.1
	github.com/swaggo/swag v1.7.0
)
